AthenaPoolTestDataReader                            DEBUG Executing AthenaPoolTestDataReader
AthenaPoolTestDataReader                            DEBUG Collection of A's
AthenaPoolTestDataReader                            DEBUG Read:      AthenaPoolTestA::printWhoYouAre A - a, b 1 2
AthenaPoolTestDataReader                            DEBUG Should be: AthenaPoolTestA::printWhoYouAre A - a, b 1 2
AthenaPoolTestDataReader                            DEBUG Read:      AthenaPoolTestA::printWhoYouAre A - a, b 2 3
AthenaPoolTestDataReader                            DEBUG Should be: AthenaPoolTestA::printWhoYouAre A - a, b 2 3
AthenaPoolTestDataReader                            DEBUG Read:      AthenaPoolTestA::printWhoYouAre A - a, b 3 4
AthenaPoolTestDataReader                            DEBUG Should be: AthenaPoolTestA::printWhoYouAre A - a, b 3 4
AthenaPoolTestDataReader                            DEBUG Read:      AthenaPoolTestA::printWhoYouAre A - a, b 4 5
AthenaPoolTestDataReader                            DEBUG Should be: AthenaPoolTestA::printWhoYouAre A - a, b 4 5
AthenaPoolTestDataReader                            DEBUG Read:      AthenaPoolTestA::printWhoYouAre A - a, b 5 6
AthenaPoolTestDataReader                            DEBUG Should be: AthenaPoolTestA::printWhoYouAre A - a, b 5 6
AthenaPoolTestDataReader                            DEBUG Collection of B's
AthenaPoolTestDataReader                            DEBUG Read:      AthenaPoolTestB::printWhoYouAre B - c, d 11 12 fa, da 7 13
AthenaPoolTestDataReader                            DEBUG Should be: AthenaPoolTestB::printWhoYouAre B - c, d 11 12 fa, da 7 13
AthenaPoolTestDataReader                            DEBUG Read:      AthenaPoolTestB::printWhoYouAre B - c, d 12 13 fa, da 7 13
AthenaPoolTestDataReader                            DEBUG Should be: AthenaPoolTestB::printWhoYouAre B - c, d 12 13 fa, da 7 13
AthenaPoolTestDataReader                            DEBUG Read:      AthenaPoolTestB::printWhoYouAre B - c, d 13 14 fa, da 7 13
AthenaPoolTestDataReader                            DEBUG Should be: AthenaPoolTestB::printWhoYouAre B - c, d 13 14 fa, da 7 13
AthenaPoolTestDataReader                            DEBUG Read:      AthenaPoolTestB::printWhoYouAre B - c, d 14 15 fa, da 7 13
AthenaPoolTestDataReader                            DEBUG Should be: AthenaPoolTestB::printWhoYouAre B - c, d 14 15 fa, da 7 13
AthenaPoolTestDataReader                            DEBUG Read:      AthenaPoolTestB::printWhoYouAre B - c, d 15 16 fa, da 7 13
AthenaPoolTestDataReader                            DEBUG Should be: AthenaPoolTestB::printWhoYouAre B - c, d 15 16 fa, da 7 13
AthenaPoolTestDataReader                            DEBUG Collection of A's and B's
AthenaPoolTestDataReader                            DEBUG Read:      AthenaPoolTestA::printWhoYouAre A - a, b 21 22
AthenaPoolTestDataReader                            DEBUG Should be: AthenaPoolTestA::printWhoYouAre A - a, b 21 22
AthenaPoolTestDataReader                            DEBUG Read:      AthenaPoolTestA::printWhoYouAre A - a, b 22 23
AthenaPoolTestDataReader                            DEBUG Should be: AthenaPoolTestA::printWhoYouAre A - a, b 22 23
AthenaPoolTestDataReader                            DEBUG Read:      AthenaPoolTestA::printWhoYouAre A - a, b 23 24
AthenaPoolTestDataReader                            DEBUG Should be: AthenaPoolTestA::printWhoYouAre A - a, b 23 24
AthenaPoolTestDataReader                            DEBUG Read:      AthenaPoolTestB::printWhoYouAre B - c, d 24 25 fa, da 7 13
AthenaPoolTestDataReader                            DEBUG Should be: AthenaPoolTestB::printWhoYouAre B - c, d 24 25 fa, da 7 13
AthenaPoolTestDataReader                            DEBUG Read:      AthenaPoolTestB::printWhoYouAre B - c, d 25 26 fa, da 7 13
AthenaPoolTestDataReader                            DEBUG Should be: AthenaPoolTestB::printWhoYouAre B - c, d 25 26 fa, da 7 13
AthenaPoolTestDataReader                            DEBUG Read:      AthenaPoolTestB::printWhoYouAre B - c, d 26 27 fa, da 7 13
AthenaPoolTestDataReader                            DEBUG Should be: AthenaPoolTestB::printWhoYouAre B - c, d 26 27 fa, da 7 13
AthenaPoolTestDataReader                            DEBUG Collection of C's
AthenaPoolTestDataReader                            DEBUG Read:      AthenaPoolTestC::printWhoYouAre C - a, b, c, d 0 0 3 4
AthenaPoolTestDataReader                            DEBUG Should be: AthenaPoolTestC::printWhoYouAre C - a, b, c, d 0 0 3 4
AthenaPoolTestDataReader                            DEBUG Read:      AthenaPoolTestC::printWhoYouAre C - a, b, c, d 0 0 4 5
AthenaPoolTestDataReader                            DEBUG Should be: AthenaPoolTestC::printWhoYouAre C - a, b, c, d 0 0 4 5
AthenaPoolTestDataReader                            DEBUG Read:      AthenaPoolTestC::printWhoYouAre C - a, b, c, d 0 0 5 6
AthenaPoolTestDataReader                            DEBUG Should be: AthenaPoolTestC::printWhoYouAre C - a, b, c, d 0 0 5 6
AthenaPoolTestDataReader                            DEBUG Read:      AthenaPoolTestC::printWhoYouAre C - a, b, c, d 0 0 6 7
AthenaPoolTestDataReader                            DEBUG Should be: AthenaPoolTestC::printWhoYouAre C - a, b, c, d 0 0 6 7
AthenaPoolTestDataReader                            DEBUG Read:      AthenaPoolTestC::printWhoYouAre C - a, b, c, d 0 0 7 8
AthenaPoolTestDataReader                            DEBUG Should be: AthenaPoolTestC::printWhoYouAre C - a, b, c, d 0 0 7 8
AthenaPoolTestDataReader                            DEBUG Collection of D's
AthenaPoolTestDataReader                            DEBUG Read:      AthenaPoolTestD::printWhoYouAre D - e, f 15 16 AthenaPoolTestC::printWhoYouAre C - a, b, c, d 0 0 13 14
AthenaPoolTestDataReader                            DEBUG Should be: AthenaPoolTestD::printWhoYouAre D - e, f 15 16 AthenaPoolTestC::printWhoYouAre C - a, b, c, d 0 0 13 14
AthenaPoolTestDataReader                            DEBUG Read:      AthenaPoolTestD::printWhoYouAre D - e, f 16 17 AthenaPoolTestC::printWhoYouAre C - a, b, c, d 0 0 14 15
AthenaPoolTestDataReader                            DEBUG Should be: AthenaPoolTestD::printWhoYouAre D - e, f 16 17 AthenaPoolTestC::printWhoYouAre C - a, b, c, d 0 0 14 15
AthenaPoolTestDataReader                            DEBUG Read:      AthenaPoolTestD::printWhoYouAre D - e, f 17 18 AthenaPoolTestC::printWhoYouAre C - a, b, c, d 0 0 15 16
AthenaPoolTestDataReader                            DEBUG Should be: AthenaPoolTestD::printWhoYouAre D - e, f 17 18 AthenaPoolTestC::printWhoYouAre C - a, b, c, d 0 0 15 16
AthenaPoolTestDataReader                            DEBUG Read:      AthenaPoolTestD::printWhoYouAre D - e, f 18 19 AthenaPoolTestC::printWhoYouAre C - a, b, c, d 0 0 16 17
AthenaPoolTestDataReader                            DEBUG Should be: AthenaPoolTestD::printWhoYouAre D - e, f 18 19 AthenaPoolTestC::printWhoYouAre C - a, b, c, d 0 0 16 17
AthenaPoolTestDataReader                            DEBUG Read:      AthenaPoolTestD::printWhoYouAre D - e, f 19 20 AthenaPoolTestC::printWhoYouAre C - a, b, c, d 0 0 17 18
AthenaPoolTestDataReader                            DEBUG Should be: AthenaPoolTestD::printWhoYouAre D - e, f 19 20 AthenaPoolTestC::printWhoYouAre C - a, b, c, d 0 0 17 18
AthenaPoolTestDataReader                            DEBUG Retrieved matrix 1 AthenaPoolTestMatrix_0
AthenaPoolTestDataReader                            DEBUG    Points (by value,by ptr) x,y,z : 1 2 3 , x,y,z 4 5 6 
AthenaPoolTestDataReader                            DEBUG    Small matrix : ( 4, 4 ) 
AthenaPoolTestDataReader                            DEBUG    Big matrix : ( 6, 6 ) 
AthenaPoolTestDataReader                            DEBUG    Other matrices : 
AthenaPoolTestDataReader                            DEBUG                   ( 4, 2 ) 
AthenaPoolTestDataReader                            DEBUG                   ( 5, 2 ) 
AthenaPoolTestDataReader                            DEBUG    Matrix maps : 2
AthenaPoolTestDataReader                            DEBUG    Key, row, column 5 4, 4
AthenaPoolTestDataReader                            DEBUG    Key, row, column 10 6, 6
AthenaPoolTestDataReader                            DEBUG    Key, row, column 16 6, 6
AthenaPoolTestDataReader                            DEBUG    Key, row, column 35 4, 4
AthenaPoolTestDataReader                            DEBUG    Matrix transform: 
AthenaPoolTestDataReader                            DEBUG    Matrix transform: 
AthenaPoolTestDataReader                            DEBUG   xx 1
AthenaPoolTestDataReader                            DEBUG   xy 0
AthenaPoolTestDataReader                            DEBUG   xz 0
AthenaPoolTestDataReader                            DEBUG   yx 0
AthenaPoolTestDataReader                            DEBUG   yy 1
AthenaPoolTestDataReader                            DEBUG   yz 0
AthenaPoolTestDataReader                            DEBUG   zx 0
AthenaPoolTestDataReader                            DEBUG   zy 0
AthenaPoolTestDataReader                            DEBUG   zz 1
AthenaPoolTestDataReader                            DEBUG   dx 0
AthenaPoolTestDataReader                            DEBUG   dy 0
AthenaPoolTestDataReader                            DEBUG   dz 0
AthenaPoolTestDataReader                            DEBUG Retrieved matrix 2 AthenaPoolTestMatrix_1
AthenaPoolTestDataReader                            DEBUG    Points (by value,by ptr) x,y,z : 1 2 3 , x,y,z 4 5 6 
AthenaPoolTestDataReader                            DEBUG    Small matrix : ( 4, 4 ) 
AthenaPoolTestDataReader                            DEBUG    Big matrix : ( 6, 6 ) 
AthenaPoolTestDataReader                            DEBUG    Other matrices : 
AthenaPoolTestDataReader                            DEBUG                   ( 4, 4 ) 
AthenaPoolTestDataReader                            DEBUG                   ( 5, 4 ) 
AthenaPoolTestDataReader                            DEBUG    Matrix maps : 2
AthenaPoolTestDataReader                            DEBUG    Key, row, column 5 4, 4
AthenaPoolTestDataReader                            DEBUG    Key, row, column 10 6, 6
AthenaPoolTestDataReader                            DEBUG    Key, row, column 16 6, 6
AthenaPoolTestDataReader                            DEBUG    Key, row, column 35 4, 4
AthenaPoolTestDataReader                            DEBUG    Matrix transform: 
AthenaPoolTestDataReader                            DEBUG    Matrix transform: 
AthenaPoolTestDataReader                            DEBUG   xx -0.333333
AthenaPoolTestDataReader                            DEBUG   xy 0.666667
AthenaPoolTestDataReader                            DEBUG   xz 0.666667
AthenaPoolTestDataReader                            DEBUG   yx -0.666667
AthenaPoolTestDataReader                            DEBUG   yy 0.333333
AthenaPoolTestDataReader                            DEBUG   yz -0.666667
AthenaPoolTestDataReader                            DEBUG   zx -0.666667
AthenaPoolTestDataReader                            DEBUG   zy -0.666667
AthenaPoolTestDataReader                            DEBUG   zz 0.333333
AthenaPoolTestDataReader                            DEBUG   dx 0
AthenaPoolTestDataReader                            DEBUG   dy 0
AthenaPoolTestDataReader                            DEBUG   dz 0
AthenaPoolTestDataReader                            DEBUG Retrieved matrix 3 AthenaPoolTestMatrix_2
AthenaPoolTestDataReader                            DEBUG    Points (by value,by ptr) x,y,z : 1 2 3 , x,y,z 4 5 6 
AthenaPoolTestDataReader                            DEBUG    Small matrix : ( 4, 4 ) 
AthenaPoolTestDataReader                            DEBUG    Big matrix : ( 6, 6 ) 
AthenaPoolTestDataReader                            DEBUG    Other matrices : 
AthenaPoolTestDataReader                            DEBUG                   ( 4, 6 ) 
AthenaPoolTestDataReader                            DEBUG                   ( 5, 6 ) 
AthenaPoolTestDataReader                            DEBUG    Matrix maps : 2
AthenaPoolTestDataReader                            DEBUG    Key, row, column 5 4, 4
AthenaPoolTestDataReader                            DEBUG    Key, row, column 10 6, 6
AthenaPoolTestDataReader                            DEBUG    Key, row, column 16 6, 6
AthenaPoolTestDataReader                            DEBUG    Key, row, column 35 4, 4
AthenaPoolTestDataReader                            DEBUG    Matrix transform: 
AthenaPoolTestDataReader                            DEBUG    Matrix transform: 
AthenaPoolTestDataReader                            DEBUG   xx -0.777778
AthenaPoolTestDataReader                            DEBUG   xy 0.444444
AthenaPoolTestDataReader                            DEBUG   xz 0.444444
AthenaPoolTestDataReader                            DEBUG   yx -0.444444
AthenaPoolTestDataReader                            DEBUG   yy 0.111111
AthenaPoolTestDataReader                            DEBUG   yz -0.888889
AthenaPoolTestDataReader                            DEBUG   zx -0.444444
AthenaPoolTestDataReader                            DEBUG   zy -0.888889
AthenaPoolTestDataReader                            DEBUG   zz 0.111111
AthenaPoolTestDataReader                            DEBUG   dx 0
AthenaPoolTestDataReader                            DEBUG   dy 0
AthenaPoolTestDataReader                            DEBUG   dz 0
AthenaPoolTestDataReader                            DEBUG Retrieved AthenaPoolMap
AthenaPoolTestDataReader                            DEBUG AthenaPoolTestMap: key 0  word 0  Deposits: (barCode, evtIndx, wgt) 0 10 20 1 11 21 2 12 22 3 13 23 4 14 24 5 15 25 6 16 26 7 17 27 8 18 28 9 19 29 
AthenaPoolTestDataReader                            DEBUG AthenaPoolTestMap: key 5  word 1  Deposits: (barCode, evtIndx, wgt) 0 10 20 1 11 21 2 12 22 3 13 23 4 14 24 5 15 25 6 16 26 7 17 27 8 18 28 9 19 29 
AthenaPoolTestDataReader                            DEBUG AthenaPoolTestMap: key 10  word 2  Deposits: (barCode, evtIndx, wgt) 0 10 20 1 11 21 2 12 22 3 13 23 4 14 24 5 15 25 6 16 26 7 17 27 8 18 28 9 19 29 
AthenaPoolTestDataReader                            DEBUG AthenaPoolTestMap: key 15  word 3  Deposits: (barCode, evtIndx, wgt) 0 10 20 1 11 21 2 12 22 3 13 23 4 14 24 5 15 25 6 16 26 7 17 27 8 18 28 9 19 29 
AthenaPoolTestDataReader                            DEBUG AthenaPoolTestMap: key 20  word 4  Deposits: (barCode, evtIndx, wgt) 0 10 20 1 11 21 2 12 22 3 13 23 4 14 24 5 15 25 6 16 26 7 17 27 8 18 28 9 19 29 
AthenaPoolTestDataReader                            DEBUG AthenaPoolTestMap: key 25  word 5  Deposits: (barCode, evtIndx, wgt) 0 10 20 1 11 21 2 12 22 3 13 23 4 14 24 5 15 25 6 16 26 7 17 27 8 18 28 9 19 29 
AthenaPoolTestDataReader                            DEBUG AthenaPoolTestMap: key 30  word 6  Deposits: (barCode, evtIndx, wgt) 0 10 20 1 11 21 2 12 22 3 13 23 4 14 24 5 15 25 6 16 26 7 17 27 8 18 28 9 19 29 
AthenaPoolTestDataReader                            DEBUG AthenaPoolTestMap: key 35  word 7  Deposits: (barCode, evtIndx, wgt) 0 10 20 1 11 21 2 12 22 3 13 23 4 14 24 5 15 25 6 16 26 7 17 27 8 18 28 9 19 29 
AthenaPoolTestDataReader                            DEBUG AthenaPoolTestMap: key 40  word 8  Deposits: (barCode, evtIndx, wgt) 0 10 20 1 11 21 2 12 22 3 13 23 4 14 24 5 15 25 6 16 26 7 17 27 8 18 28 9 19 29 
AthenaPoolTestDataReader                            DEBUG AthenaPoolTestMap: key 45  word 9  Deposits: (barCode, evtIndx, wgt) 0 10 20 1 11 21 2 12 22 3 13 23 4 14 24 5 15 25 6 16 26 7 17 27 8 18 28 9 19 29 
AthenaPoolTestDataReader                            DEBUG Read back dummy_A class 
AthenaPoolTestDataReader                            DEBUG Dummy A: size B 5
AthenaPoolTestDataReader                            DEBUG Dummy B: size C 4
AthenaPoolTestDataReader                            DEBUG i,c: 0 10
AthenaPoolTestDataReader                            DEBUG i,c: 1 10
AthenaPoolTestDataReader                            DEBUG i,c: 2 10
AthenaPoolTestDataReader                            DEBUG i,c: 3 10
AthenaPoolTestDataReader                            DEBUG Dummy B: size C 4
AthenaPoolTestDataReader                            DEBUG i,c: 0 10
AthenaPoolTestDataReader                            DEBUG i,c: 1 10
AthenaPoolTestDataReader                            DEBUG i,c: 2 10
AthenaPoolTestDataReader                            DEBUG i,c: 3 10
AthenaPoolTestDataReader                            DEBUG Dummy B: size C 4
AthenaPoolTestDataReader                            DEBUG i,c: 0 10
AthenaPoolTestDataReader                            DEBUG i,c: 1 10
AthenaPoolTestDataReader                            DEBUG i,c: 2 10
AthenaPoolTestDataReader                            DEBUG i,c: 3 10
AthenaPoolTestDataReader                            DEBUG Dummy B: size C 4
AthenaPoolTestDataReader                            DEBUG i,c: 0 10
AthenaPoolTestDataReader                            DEBUG i,c: 1 10
AthenaPoolTestDataReader                            DEBUG i,c: 2 10
AthenaPoolTestDataReader                            DEBUG i,c: 3 10
AthenaPoolTestDataReader                            DEBUG Dummy B: size C 4
AthenaPoolTestDataReader                            DEBUG i,c: 0 10
AthenaPoolTestDataReader                            DEBUG i,c: 1 10
AthenaPoolTestDataReader                            DEBUG i,c: 2 10
AthenaPoolTestDataReader                            DEBUG i,c: 3 10
AthenaPoolTestDataReader                            DEBUG Dummy E: size D 2
AthenaPoolTestDataReader                            DEBUG Dummy D: value 10
AthenaPoolTestDataReader                            DEBUG Dummy D: value 10
AthenaPoolTestDataReader                            DEBUG Normal EventInfo
AthenaPoolTestDataReader                            DEBUG Event ID: [4294967296:0] 
AthenaPoolTestDataReader                            DEBUG [Run,Evt,Lumi,Time,BunchCross,DetMask] = [1,4294967296,1,0:0,0,0x0,0x0,0x0]
AthenaPoolTestDataReader                            DEBUG Event type: user type McEvent weight 0: 0.9876 weight 1: 1.9876 weight 2: 2.9876
AthenaPoolTestDataReader                            DEBUG Actual interatctions per crossing: 35.23 and ave: 169.41
AthenaPoolTestDataReader                            DEBUG Subdet: 0 flags        ffffb40
AthenaPoolTestDataReader                            DEBUG Subdet: 0 error state: NotSet 
AthenaPoolTestDataReader                            DEBUG Subdet: 1 flags        ffffb43
AthenaPoolTestDataReader                            DEBUG Subdet: 1 error state: Warning 
AthenaPoolTestDataReader                            DEBUG Subdet: 2 flags        ffffb46
AthenaPoolTestDataReader                            DEBUG Subdet: 2 error state: Error 
AthenaPoolTestDataReader                            DEBUG Subdet: 3 flags        ffffb49
AthenaPoolTestDataReader                            DEBUG Subdet: 3 error state: NotSet 
AthenaPoolTestDataReader                            DEBUG Subdet: 4 flags        ffffb4c
AthenaPoolTestDataReader                            DEBUG Subdet: 4 error state: Warning 
AthenaPoolTestDataReader                            DEBUG Subdet: 5 flags        ffffb4f
AthenaPoolTestDataReader                            DEBUG Subdet: 5 error state: Error 
AthenaPoolTestDataReader                            DEBUG Subdet: 6 flags        ffffb52
AthenaPoolTestDataReader                            DEBUG Subdet: 6 error state: NotSet 
AthenaPoolTestDataReader                            DEBUG Subdet: 7 flags        ffffb55
AthenaPoolTestDataReader                            DEBUG Subdet: 7 error state: Warning 
AthenaPoolTestDataReader                            DEBUG Subdet: 8 flags        ffffb58
AthenaPoolTestDataReader                            DEBUG Subdet: 8 error state: Error 
AthenaPoolTestDataReader                            DEBUG PileUpEventInfo
AthenaPoolTestDataReader                            DEBUG Event ID: [1,4294967296:12] 
AthenaPoolTestDataReader                            DEBUG Event type: user type Overlaid
AthenaPoolTestDataReader                            DEBUG Trigger info: status 7 extLvl1ID 8 lvl1Type  9 lvl1Info  14 15 lvl2Info 10 11 EventFilterInfo 12 13 EventFilterInfo  i 0 name StreamA type TypeA ObeyLumi 1 i 1 name StreamB type TypeB ObeyLumi 0
AthenaPoolTestDataReader                            DEBUG SubEventInfos
AthenaPoolTestDataReader                            DEBUG None found
AthenaPoolTestDataReader                            DEBUG Executing AthenaPoolTestDataReader
AthenaPoolTestDataReader                            DEBUG Collection of A's
AthenaPoolTestDataReader                            DEBUG Read:      AthenaPoolTestA::printWhoYouAre A - a, b 1 2
AthenaPoolTestDataReader                            DEBUG Should be: AthenaPoolTestA::printWhoYouAre A - a, b 1 2
AthenaPoolTestDataReader                            DEBUG Read:      AthenaPoolTestA::printWhoYouAre A - a, b 2 3
AthenaPoolTestDataReader                            DEBUG Should be: AthenaPoolTestA::printWhoYouAre A - a, b 2 3
AthenaPoolTestDataReader                            DEBUG Read:      AthenaPoolTestA::printWhoYouAre A - a, b 3 4
AthenaPoolTestDataReader                            DEBUG Should be: AthenaPoolTestA::printWhoYouAre A - a, b 3 4
AthenaPoolTestDataReader                            DEBUG Read:      AthenaPoolTestA::printWhoYouAre A - a, b 4 5
AthenaPoolTestDataReader                            DEBUG Should be: AthenaPoolTestA::printWhoYouAre A - a, b 4 5
AthenaPoolTestDataReader                            DEBUG Read:      AthenaPoolTestA::printWhoYouAre A - a, b 5 6
AthenaPoolTestDataReader                            DEBUG Should be: AthenaPoolTestA::printWhoYouAre A - a, b 5 6
AthenaPoolTestDataReader                            DEBUG Collection of B's
AthenaPoolTestDataReader                            DEBUG Read:      AthenaPoolTestB::printWhoYouAre B - c, d 11 12 fa, da 7 13
AthenaPoolTestDataReader                            DEBUG Should be: AthenaPoolTestB::printWhoYouAre B - c, d 11 12 fa, da 7 13
AthenaPoolTestDataReader                            DEBUG Read:      AthenaPoolTestB::printWhoYouAre B - c, d 12 13 fa, da 7 13
AthenaPoolTestDataReader                            DEBUG Should be: AthenaPoolTestB::printWhoYouAre B - c, d 12 13 fa, da 7 13
AthenaPoolTestDataReader                            DEBUG Read:      AthenaPoolTestB::printWhoYouAre B - c, d 13 14 fa, da 7 13
AthenaPoolTestDataReader                            DEBUG Should be: AthenaPoolTestB::printWhoYouAre B - c, d 13 14 fa, da 7 13
AthenaPoolTestDataReader                            DEBUG Read:      AthenaPoolTestB::printWhoYouAre B - c, d 14 15 fa, da 7 13
AthenaPoolTestDataReader                            DEBUG Should be: AthenaPoolTestB::printWhoYouAre B - c, d 14 15 fa, da 7 13
AthenaPoolTestDataReader                            DEBUG Read:      AthenaPoolTestB::printWhoYouAre B - c, d 15 16 fa, da 7 13
AthenaPoolTestDataReader                            DEBUG Should be: AthenaPoolTestB::printWhoYouAre B - c, d 15 16 fa, da 7 13
AthenaPoolTestDataReader                            DEBUG Collection of A's and B's
AthenaPoolTestDataReader                            DEBUG Read:      AthenaPoolTestA::printWhoYouAre A - a, b 21 22
AthenaPoolTestDataReader                            DEBUG Should be: AthenaPoolTestA::printWhoYouAre A - a, b 21 22
AthenaPoolTestDataReader                            DEBUG Read:      AthenaPoolTestA::printWhoYouAre A - a, b 22 23
AthenaPoolTestDataReader                            DEBUG Should be: AthenaPoolTestA::printWhoYouAre A - a, b 22 23
AthenaPoolTestDataReader                            DEBUG Read:      AthenaPoolTestA::printWhoYouAre A - a, b 23 24
AthenaPoolTestDataReader                            DEBUG Should be: AthenaPoolTestA::printWhoYouAre A - a, b 23 24
AthenaPoolTestDataReader                            DEBUG Read:      AthenaPoolTestB::printWhoYouAre B - c, d 24 25 fa, da 7 13
AthenaPoolTestDataReader                            DEBUG Should be: AthenaPoolTestB::printWhoYouAre B - c, d 24 25 fa, da 7 13
AthenaPoolTestDataReader                            DEBUG Read:      AthenaPoolTestB::printWhoYouAre B - c, d 25 26 fa, da 7 13
AthenaPoolTestDataReader                            DEBUG Should be: AthenaPoolTestB::printWhoYouAre B - c, d 25 26 fa, da 7 13
AthenaPoolTestDataReader                            DEBUG Read:      AthenaPoolTestB::printWhoYouAre B - c, d 26 27 fa, da 7 13
AthenaPoolTestDataReader                            DEBUG Should be: AthenaPoolTestB::printWhoYouAre B - c, d 26 27 fa, da 7 13
AthenaPoolTestDataReader                            DEBUG Collection of C's
AthenaPoolTestDataReader                            DEBUG Read:      AthenaPoolTestC::printWhoYouAre C - a, b, c, d 0 0 3 4
AthenaPoolTestDataReader                            DEBUG Should be: AthenaPoolTestC::printWhoYouAre C - a, b, c, d 0 0 3 4
AthenaPoolTestDataReader                            DEBUG Read:      AthenaPoolTestC::printWhoYouAre C - a, b, c, d 0 0 4 5
AthenaPoolTestDataReader                            DEBUG Should be: AthenaPoolTestC::printWhoYouAre C - a, b, c, d 0 0 4 5
AthenaPoolTestDataReader                            DEBUG Read:      AthenaPoolTestC::printWhoYouAre C - a, b, c, d 0 0 5 6
AthenaPoolTestDataReader                            DEBUG Should be: AthenaPoolTestC::printWhoYouAre C - a, b, c, d 0 0 5 6
AthenaPoolTestDataReader                            DEBUG Read:      AthenaPoolTestC::printWhoYouAre C - a, b, c, d 0 0 6 7
AthenaPoolTestDataReader                            DEBUG Should be: AthenaPoolTestC::printWhoYouAre C - a, b, c, d 0 0 6 7
AthenaPoolTestDataReader                            DEBUG Read:      AthenaPoolTestC::printWhoYouAre C - a, b, c, d 0 0 7 8
AthenaPoolTestDataReader                            DEBUG Should be: AthenaPoolTestC::printWhoYouAre C - a, b, c, d 0 0 7 8
AthenaPoolTestDataReader                            DEBUG Collection of D's
AthenaPoolTestDataReader                            DEBUG Read:      AthenaPoolTestD::printWhoYouAre D - e, f 15 16 AthenaPoolTestC::printWhoYouAre C - a, b, c, d 0 0 13 14
AthenaPoolTestDataReader                            DEBUG Should be: AthenaPoolTestD::printWhoYouAre D - e, f 15 16 AthenaPoolTestC::printWhoYouAre C - a, b, c, d 0 0 13 14
AthenaPoolTestDataReader                            DEBUG Read:      AthenaPoolTestD::printWhoYouAre D - e, f 16 17 AthenaPoolTestC::printWhoYouAre C - a, b, c, d 0 0 14 15
AthenaPoolTestDataReader                            DEBUG Should be: AthenaPoolTestD::printWhoYouAre D - e, f 16 17 AthenaPoolTestC::printWhoYouAre C - a, b, c, d 0 0 14 15
AthenaPoolTestDataReader                            DEBUG Read:      AthenaPoolTestD::printWhoYouAre D - e, f 17 18 AthenaPoolTestC::printWhoYouAre C - a, b, c, d 0 0 15 16
AthenaPoolTestDataReader                            DEBUG Should be: AthenaPoolTestD::printWhoYouAre D - e, f 17 18 AthenaPoolTestC::printWhoYouAre C - a, b, c, d 0 0 15 16
AthenaPoolTestDataReader                            DEBUG Read:      AthenaPoolTestD::printWhoYouAre D - e, f 18 19 AthenaPoolTestC::printWhoYouAre C - a, b, c, d 0 0 16 17
AthenaPoolTestDataReader                            DEBUG Should be: AthenaPoolTestD::printWhoYouAre D - e, f 18 19 AthenaPoolTestC::printWhoYouAre C - a, b, c, d 0 0 16 17
AthenaPoolTestDataReader                            DEBUG Read:      AthenaPoolTestD::printWhoYouAre D - e, f 19 20 AthenaPoolTestC::printWhoYouAre C - a, b, c, d 0 0 17 18
AthenaPoolTestDataReader                            DEBUG Should be: AthenaPoolTestD::printWhoYouAre D - e, f 19 20 AthenaPoolTestC::printWhoYouAre C - a, b, c, d 0 0 17 18
AthenaPoolTestDataReader                            DEBUG Retrieved matrix 1 AthenaPoolTestMatrix_0
AthenaPoolTestDataReader                            DEBUG    Points (by value,by ptr) x,y,z : 1 2 3 , x,y,z 4 5 6 
AthenaPoolTestDataReader                            DEBUG    Small matrix : ( 4, 4 ) 
AthenaPoolTestDataReader                            DEBUG    Big matrix : ( 6, 6 ) 
AthenaPoolTestDataReader                            DEBUG    Other matrices : 
AthenaPoolTestDataReader                            DEBUG                   ( 4, 2 ) 
AthenaPoolTestDataReader                            DEBUG                   ( 5, 2 ) 
AthenaPoolTestDataReader                            DEBUG    Matrix maps : 2
AthenaPoolTestDataReader                            DEBUG    Key, row, column 5 4, 4
AthenaPoolTestDataReader                            DEBUG    Key, row, column 10 6, 6
AthenaPoolTestDataReader                            DEBUG    Key, row, column 16 6, 6
AthenaPoolTestDataReader                            DEBUG    Key, row, column 35 4, 4
AthenaPoolTestDataReader                            DEBUG    Matrix transform: 
AthenaPoolTestDataReader                            DEBUG    Matrix transform: 
AthenaPoolTestDataReader                            DEBUG   xx 1
AthenaPoolTestDataReader                            DEBUG   xy 0
AthenaPoolTestDataReader                            DEBUG   xz 0
AthenaPoolTestDataReader                            DEBUG   yx 0
AthenaPoolTestDataReader                            DEBUG   yy 1
AthenaPoolTestDataReader                            DEBUG   yz 0
AthenaPoolTestDataReader                            DEBUG   zx 0
AthenaPoolTestDataReader                            DEBUG   zy 0
AthenaPoolTestDataReader                            DEBUG   zz 1
AthenaPoolTestDataReader                            DEBUG   dx 0
AthenaPoolTestDataReader                            DEBUG   dy 0
AthenaPoolTestDataReader                            DEBUG   dz 0
AthenaPoolTestDataReader                            DEBUG Retrieved matrix 2 AthenaPoolTestMatrix_1
AthenaPoolTestDataReader                            DEBUG    Points (by value,by ptr) x,y,z : 1 2 3 , x,y,z 4 5 6 
AthenaPoolTestDataReader                            DEBUG    Small matrix : ( 4, 4 ) 
AthenaPoolTestDataReader                            DEBUG    Big matrix : ( 6, 6 ) 
AthenaPoolTestDataReader                            DEBUG    Other matrices : 
AthenaPoolTestDataReader                            DEBUG                   ( 4, 4 ) 
AthenaPoolTestDataReader                            DEBUG                   ( 5, 4 ) 
AthenaPoolTestDataReader                            DEBUG    Matrix maps : 2
AthenaPoolTestDataReader                            DEBUG    Key, row, column 5 4, 4
AthenaPoolTestDataReader                            DEBUG    Key, row, column 10 6, 6
AthenaPoolTestDataReader                            DEBUG    Key, row, column 16 6, 6
AthenaPoolTestDataReader                            DEBUG    Key, row, column 35 4, 4
AthenaPoolTestDataReader                            DEBUG    Matrix transform: 
AthenaPoolTestDataReader                            DEBUG    Matrix transform: 
AthenaPoolTestDataReader                            DEBUG   xx -0.333333
AthenaPoolTestDataReader                            DEBUG   xy 0.666667
AthenaPoolTestDataReader                            DEBUG   xz 0.666667
AthenaPoolTestDataReader                            DEBUG   yx -0.666667
AthenaPoolTestDataReader                            DEBUG   yy 0.333333
AthenaPoolTestDataReader                            DEBUG   yz -0.666667
AthenaPoolTestDataReader                            DEBUG   zx -0.666667
AthenaPoolTestDataReader                            DEBUG   zy -0.666667
AthenaPoolTestDataReader                            DEBUG   zz 0.333333
AthenaPoolTestDataReader                            DEBUG   dx 0
AthenaPoolTestDataReader                            DEBUG   dy 0
AthenaPoolTestDataReader                            DEBUG   dz 0
AthenaPoolTestDataReader                            DEBUG Retrieved matrix 3 AthenaPoolTestMatrix_2
AthenaPoolTestDataReader                            DEBUG    Points (by value,by ptr) x,y,z : 1 2 3 , x,y,z 4 5 6 
AthenaPoolTestDataReader                            DEBUG    Small matrix : ( 4, 4 ) 
AthenaPoolTestDataReader                            DEBUG    Big matrix : ( 6, 6 ) 
AthenaPoolTestDataReader                            DEBUG    Other matrices : 
AthenaPoolTestDataReader                            DEBUG                   ( 4, 6 ) 
AthenaPoolTestDataReader                            DEBUG                   ( 5, 6 ) 
AthenaPoolTestDataReader                            DEBUG    Matrix maps : 2
AthenaPoolTestDataReader                            DEBUG    Key, row, column 5 4, 4
AthenaPoolTestDataReader                            DEBUG    Key, row, column 10 6, 6
AthenaPoolTestDataReader                            DEBUG    Key, row, column 16 6, 6
AthenaPoolTestDataReader                            DEBUG    Key, row, column 35 4, 4
AthenaPoolTestDataReader                            DEBUG    Matrix transform: 
AthenaPoolTestDataReader                            DEBUG    Matrix transform: 
AthenaPoolTestDataReader                            DEBUG   xx -0.777778
AthenaPoolTestDataReader                            DEBUG   xy 0.444444
AthenaPoolTestDataReader                            DEBUG   xz 0.444444
AthenaPoolTestDataReader                            DEBUG   yx -0.444444
AthenaPoolTestDataReader                            DEBUG   yy 0.111111
AthenaPoolTestDataReader                            DEBUG   yz -0.888889
AthenaPoolTestDataReader                            DEBUG   zx -0.444444
AthenaPoolTestDataReader                            DEBUG   zy -0.888889
AthenaPoolTestDataReader                            DEBUG   zz 0.111111
AthenaPoolTestDataReader                            DEBUG   dx 0
AthenaPoolTestDataReader                            DEBUG   dy 0
AthenaPoolTestDataReader                            DEBUG   dz 0
AthenaPoolTestDataReader                            DEBUG Retrieved AthenaPoolMap
AthenaPoolTestDataReader                            DEBUG AthenaPoolTestMap: key 0  word 0  Deposits: (barCode, evtIndx, wgt) 0 10 20 1 11 21 2 12 22 3 13 23 4 14 24 5 15 25 6 16 26 7 17 27 8 18 28 9 19 29 
AthenaPoolTestDataReader                            DEBUG AthenaPoolTestMap: key 5  word 1  Deposits: (barCode, evtIndx, wgt) 0 10 20 1 11 21 2 12 22 3 13 23 4 14 24 5 15 25 6 16 26 7 17 27 8 18 28 9 19 29 
AthenaPoolTestDataReader                            DEBUG AthenaPoolTestMap: key 10  word 2  Deposits: (barCode, evtIndx, wgt) 0 10 20 1 11 21 2 12 22 3 13 23 4 14 24 5 15 25 6 16 26 7 17 27 8 18 28 9 19 29 
AthenaPoolTestDataReader                            DEBUG AthenaPoolTestMap: key 15  word 3  Deposits: (barCode, evtIndx, wgt) 0 10 20 1 11 21 2 12 22 3 13 23 4 14 24 5 15 25 6 16 26 7 17 27 8 18 28 9 19 29 
AthenaPoolTestDataReader                            DEBUG AthenaPoolTestMap: key 20  word 4  Deposits: (barCode, evtIndx, wgt) 0 10 20 1 11 21 2 12 22 3 13 23 4 14 24 5 15 25 6 16 26 7 17 27 8 18 28 9 19 29 
AthenaPoolTestDataReader                            DEBUG AthenaPoolTestMap: key 25  word 5  Deposits: (barCode, evtIndx, wgt) 0 10 20 1 11 21 2 12 22 3 13 23 4 14 24 5 15 25 6 16 26 7 17 27 8 18 28 9 19 29 
AthenaPoolTestDataReader                            DEBUG AthenaPoolTestMap: key 30  word 6  Deposits: (barCode, evtIndx, wgt) 0 10 20 1 11 21 2 12 22 3 13 23 4 14 24 5 15 25 6 16 26 7 17 27 8 18 28 9 19 29 
AthenaPoolTestDataReader                            DEBUG AthenaPoolTestMap: key 35  word 7  Deposits: (barCode, evtIndx, wgt) 0 10 20 1 11 21 2 12 22 3 13 23 4 14 24 5 15 25 6 16 26 7 17 27 8 18 28 9 19 29 
AthenaPoolTestDataReader                            DEBUG AthenaPoolTestMap: key 40  word 8  Deposits: (barCode, evtIndx, wgt) 0 10 20 1 11 21 2 12 22 3 13 23 4 14 24 5 15 25 6 16 26 7 17 27 8 18 28 9 19 29 
AthenaPoolTestDataReader                            DEBUG AthenaPoolTestMap: key 45  word 9  Deposits: (barCode, evtIndx, wgt) 0 10 20 1 11 21 2 12 22 3 13 23 4 14 24 5 15 25 6 16 26 7 17 27 8 18 28 9 19 29 
AthenaPoolTestDataReader                            DEBUG Read back dummy_A class 
AthenaPoolTestDataReader                            DEBUG Dummy A: size B 5
AthenaPoolTestDataReader                            DEBUG Dummy B: size C 4
AthenaPoolTestDataReader                            DEBUG i,c: 0 10
AthenaPoolTestDataReader                            DEBUG i,c: 1 10
AthenaPoolTestDataReader                            DEBUG i,c: 2 10
AthenaPoolTestDataReader                            DEBUG i,c: 3 10
AthenaPoolTestDataReader                            DEBUG Dummy B: size C 4
AthenaPoolTestDataReader                            DEBUG i,c: 0 10
AthenaPoolTestDataReader                            DEBUG i,c: 1 10
AthenaPoolTestDataReader                            DEBUG i,c: 2 10
AthenaPoolTestDataReader                            DEBUG i,c: 3 10
AthenaPoolTestDataReader                            DEBUG Dummy B: size C 4
AthenaPoolTestDataReader                            DEBUG i,c: 0 10
AthenaPoolTestDataReader                            DEBUG i,c: 1 10
AthenaPoolTestDataReader                            DEBUG i,c: 2 10
AthenaPoolTestDataReader                            DEBUG i,c: 3 10
AthenaPoolTestDataReader                            DEBUG Dummy B: size C 4
AthenaPoolTestDataReader                            DEBUG i,c: 0 10
AthenaPoolTestDataReader                            DEBUG i,c: 1 10
AthenaPoolTestDataReader                            DEBUG i,c: 2 10
AthenaPoolTestDataReader                            DEBUG i,c: 3 10
AthenaPoolTestDataReader                            DEBUG Dummy B: size C 4
AthenaPoolTestDataReader                            DEBUG i,c: 0 10
AthenaPoolTestDataReader                            DEBUG i,c: 1 10
AthenaPoolTestDataReader                            DEBUG i,c: 2 10
AthenaPoolTestDataReader                            DEBUG i,c: 3 10
AthenaPoolTestDataReader                            DEBUG Dummy E: size D 2
AthenaPoolTestDataReader                            DEBUG Dummy D: value 10
AthenaPoolTestDataReader                            DEBUG Dummy D: value 10
AthenaPoolTestDataReader                            DEBUG Normal EventInfo
AthenaPoolTestDataReader                            DEBUG Event ID: [4294967297:5] 
AthenaPoolTestDataReader                            DEBUG [Run,Evt,Lumi,Time,BunchCross,DetMask] = [1,4294967297,2,5:0,0,0x0,0x0,0x0]
AthenaPoolTestDataReader                            DEBUG Event type: user type McEvent weight 0: 0.9876 weight 1: 1.9876 weight 2: 2.9876
AthenaPoolTestDataReader                            DEBUG Actual interatctions per crossing: 35.23 and ave: 169.41
AthenaPoolTestDataReader                            DEBUG Subdet: 0 flags        ffffb40
AthenaPoolTestDataReader                            DEBUG Subdet: 0 error state: NotSet 
AthenaPoolTestDataReader                            DEBUG Subdet: 1 flags        ffffb43
AthenaPoolTestDataReader                            DEBUG Subdet: 1 error state: Warning 
AthenaPoolTestDataReader                            DEBUG Subdet: 2 flags        ffffb46
AthenaPoolTestDataReader                            DEBUG Subdet: 2 error state: Error 
AthenaPoolTestDataReader                            DEBUG Subdet: 3 flags        ffffb49
AthenaPoolTestDataReader                            DEBUG Subdet: 3 error state: NotSet 
AthenaPoolTestDataReader                            DEBUG Subdet: 4 flags        ffffb4c
AthenaPoolTestDataReader                            DEBUG Subdet: 4 error state: Warning 
AthenaPoolTestDataReader                            DEBUG Subdet: 5 flags        ffffb4f
AthenaPoolTestDataReader                            DEBUG Subdet: 5 error state: Error 
AthenaPoolTestDataReader                            DEBUG Subdet: 6 flags        ffffb52
AthenaPoolTestDataReader                            DEBUG Subdet: 6 error state: NotSet 
AthenaPoolTestDataReader                            DEBUG Subdet: 7 flags        ffffb55
AthenaPoolTestDataReader                            DEBUG Subdet: 7 error state: Warning 
AthenaPoolTestDataReader                            DEBUG Subdet: 8 flags        ffffb58
AthenaPoolTestDataReader                            DEBUG Subdet: 8 error state: Error 
AthenaPoolTestDataReader                            DEBUG PileUpEventInfo
AthenaPoolTestDataReader                            DEBUG Event ID: [1,4294967297:12] 
AthenaPoolTestDataReader                            DEBUG Event type: user type Overlaid
AthenaPoolTestDataReader                            DEBUG Trigger info: status 7 extLvl1ID 8 lvl1Type  9 lvl1Info  14 15 lvl2Info 10 11 EventFilterInfo 12 13 EventFilterInfo  i 0 name StreamA type TypeA ObeyLumi 1 i 1 name StreamB type TypeB ObeyLumi 0
AthenaPoolTestDataReader                            DEBUG SubEventInfos
AthenaPoolTestDataReader                            DEBUG None found
